Introduction to R
…
library(dplyr)

Attaching package: 'dplyr'

The following objects are masked from 'package:stats':

    filter, lag

The following objects are masked from 'package:base':

    intersect, setdiff, setequal, union

gapminder

# A tibble: 1,704 x 6
   country     continent  year lifeExp      pop gdpPercap
   <fct>       <fct>     <int>   <dbl>    <int>     <dbl>
 1 Afghanistan Asia       1952    28.8  8425333      779.
 2 Afghanistan Asia       1957    30.3  9240934      821.
 3 Afghanistan Asia       1962    32.0 10267083      853.
 4 Afghanistan Asia       1967    34.0 11537966      836.
 5 Afghanistan Asia       1972    36.1 13079460      740.
 6 Afghanistan Asia       1977    38.4 14880372      786.
 7 Afghanistan Asia       1982    39.9 12881816      978.
 8 Afghanistan Asia       1987    40.8 13867957      852.
 9 Afghanistan Asia       1992    41.7 16317921      649.
10 Afghanistan Asia       1997    41.8 22227415      635.
# … with 1,694 more rows

#mutate
mutate(gapminder, GDP = gdpPercap * pop)

# A tibble: 1,704 x 7
   country     continent  year lifeExp      pop gdpPercap          GDP
   <fct>       <fct>     <int>   <dbl>    <int>     <dbl>        <dbl>
 1 Afghanistan Asia       1952    28.8  8425333      779.  6567086330.
 2 Afghanistan Asia       1957    30.3  9240934      821.  7585448670.
 3 Afghanistan Asia       1962    32.0 10267083      853.  8758855797.
 4 Afghanistan Asia       1967    34.0 11537966      836.  9648014150.
 5 Afghanistan Asia       1972    36.1 13079460      740.  9678553274.
 6 Afghanistan Asia       1977    38.4 14880372      786. 11697659231.
 7 Afghanistan Asia       1982    39.9 12881816      978. 12598563401.
 8 Afghanistan Asia       1987    40.8 13867957      852. 11820990309.
 9 Afghanistan Asia       1992    41.7 16317921      649. 10595901589.
10 Afghanistan Asia       1997    41.8 22227415      635. 14121995875.
# … with 1,694 more rows

gapminder %>% mutate(GDP = gdpPercap * pop) #pipes

# A tibble: 1,704 x 7
   country     continent  year lifeExp      pop gdpPercap          GDP
   <fct>       <fct>     <int>   <dbl>    <int>     <dbl>        <dbl>
 1 Afghanistan Asia       1952    28.8  8425333      779.  6567086330.
 2 Afghanistan Asia       1957    30.3  9240934      821.  7585448670.
 3 Afghanistan Asia       1962    32.0 10267083      853.  8758855797.
 4 Afghanistan Asia       1967    34.0 11537966      836.  9648014150.
 5 Afghanistan Asia       1972    36.1 13079460      740.  9678553274.
 6 Afghanistan Asia       1977    38.4 14880372      786. 11697659231.
 7 Afghanistan Asia       1982    39.9 12881816      978. 12598563401.
 8 Afghanistan Asia       1987    40.8 13867957      852. 11820990309.
 9 Afghanistan Asia       1992    41.7 16317921      649. 10595901589.
10 Afghanistan Asia       1997    41.8 22227415      635. 14121995875.
# … with 1,694 more rows

gapminder_with_GDP <- gapminder %>% mutate(GDP = gdpPercap * pop) #assign output to variable
gapminder_with_GDP

# A tibble: 1,704 x 7
   country     continent  year lifeExp      pop gdpPercap          GDP
   <fct>       <fct>     <int>   <dbl>    <int>     <dbl>        <dbl>
 1 Afghanistan Asia       1952    28.8  8425333      779.  6567086330.
 2 Afghanistan Asia       1957    30.3  9240934      821.  7585448670.
 3 Afghanistan Asia       1962    32.0 10267083      853.  8758855797.
 4 Afghanistan Asia       1967    34.0 11537966      836.  9648014150.
 5 Afghanistan Asia       1972    36.1 13079460      740.  9678553274.
 6 Afghanistan Asia       1977    38.4 14880372      786. 11697659231.
 7 Afghanistan Asia       1982    39.9 12881816      978. 12598563401.
 8 Afghanistan Asia       1987    40.8 13867957      852. 11820990309.
 9 Afghanistan Asia       1992    41.7 16317921      649. 10595901589.
10 Afghanistan Asia       1997    41.8 22227415      635. 14121995875.
# … with 1,694 more rows

#select
gapminder %>% select(c(country, continent, year))

# A tibble: 1,704 x 3
   country     continent  year
   <fct>       <fct>     <int>
 1 Afghanistan Asia       1952
 2 Afghanistan Asia       1957
 3 Afghanistan Asia       1962
 4 Afghanistan Asia       1967
 5 Afghanistan Asia       1972
 6 Afghanistan Asia       1977
 7 Afghanistan Asia       1982
 8 Afghanistan Asia       1987
 9 Afghanistan Asia       1992
10 Afghanistan Asia       1997
# … with 1,694 more rows

data %>% select(contains("frumiosity")) %>% slice(10)

  Baseline.Frumiosity Post.Frumiosity
1            4.894497        11.87147

gapminder %>%  select(starts_with("c"))

# A tibble: 1,704 x 2
   country     continent
   <fct>       <fct>    
 1 Afghanistan Asia     
 2 Afghanistan Asia     
 3 Afghanistan Asia     
 4 Afghanistan Asia     
 5 Afghanistan Asia     
 6 Afghanistan Asia     
 7 Afghanistan Asia     
 8 Afghanistan Asia     
 9 Afghanistan Asia     
10 Afghanistan Asia     
# … with 1,694 more rows

gapminder %>%  select(ends_with("p"))

# A tibble: 1,704 x 3
   lifeExp      pop gdpPercap
     <dbl>    <int>     <dbl>
 1    28.8  8425333      779.
 2    30.3  9240934      821.
 3    32.0 10267083      853.
 4    34.0 11537966      836.
 5    36.1 13079460      740.
 6    38.4 14880372      786.
 7    39.9 12881816      978.
 8    40.8 13867957      852.
 9    41.7 16317921      649.
10    41.8 22227415      635.
# … with 1,694 more rows
…
gapminder %>% filter(year > 1999)

# A tibble: 284 x 6
   country     continent  year lifeExp      pop gdpPercap
   <fct>       <fct>     <int>   <dbl>    <int>     <dbl>
 1 Afghanistan Asia       2002    42.1 25268405      727.
 2 Afghanistan Asia       2007    43.8 31889923      975.
 3 Albania     Europe     2002    75.7  3508512     4604.
 4 Albania     Europe     2007    76.4  3600523     5937.
 5 Algeria     Africa     2002    71.0 31287142     5288.
 6 Algeria     Africa     2007    72.3 33333216     6223.
 7 Angola      Africa     2002    41.0 10866106     2773.
 8 Angola      Africa     2007    42.7 12420476     4797.
 9 Argentina   Americas   2002    74.3 38331121     8798.
10 Argentina   Americas   2007    75.3 40301927    12779.
# … with 274 more rows

gapminder %>% filter()

# A tibble: 1,704 x 6
   country     continent  year lifeExp      pop gdpPercap
   <fct>       <fct>     <int>   <dbl>    <int>     <dbl>
 1 Afghanistan Asia       1952    28.8  8425333      779.
 2 Afghanistan Asia       1957    30.3  9240934      821.
 3 Afghanistan Asia       1962    32.0 10267083      853.
 4 Afghanistan Asia       1967    34.0 11537966      836.
 5 Afghanistan Asia       1972    36.1 13079460      740.
 6 Afghanistan Asia       1977    38.4 14880372      786.
 7 Afghanistan Asia       1982    39.9 12881816      978.
 8 Afghanistan Asia       1987    40.8 13867957      852.
 9 Afghanistan Asia       1992    41.7 16317921      649.
10 Afghanistan Asia       1997    41.8 22227415      635.
# … with 1,694 more rows

#summarise
gapminder %>% summarise(mean(gdpPercap))

# A tibble: 1 x 1
  `mean(gdpPercap)`
              <dbl>
1             7215.

#arrange
gapminder %>% arrange(year)

# A tibble: 1,704 x 6
   country     continent  year lifeExp      pop gdpPercap
   <fct>       <fct>     <int>   <dbl>    <int>     <dbl>
 1 Afghanistan Asia       1952    28.8  8425333      779.
 2 Albania     Europe     1952    55.2  1282697     1601.
 3 Algeria     Africa     1952    43.1  9279525     2449.
 4 Angola      Africa     1952    30.0  4232095     3521.
 5 Argentina   Americas   1952    62.5 17876956     5911.
 6 Australia   Oceania    1952    69.1  8691212    10040.
 7 Austria     Europe     1952    66.8  6927772     6137.
 8 Bahrain     Asia       1952    50.9   120447     9867.
 9 Bangladesh  Asia       1952    37.5 46886859      684.
10 Belgium     Europe     1952    68    8730405     8343.
# … with 1,694 more rows

gapminder %>% arrange(desc(year))

# A tibble: 1,704 x 6
   country     continent  year lifeExp       pop gdpPercap
   <fct>       <fct>     <int>   <dbl>     <int>     <dbl>
 1 Afghanistan Asia       2007    43.8  31889923      975.
 2 Albania     Europe     2007    76.4   3600523     5937.
 3 Algeria     Africa     2007    72.3  33333216     6223.
 4 Angola      Africa     2007    42.7  12420476     4797.
 5 Argentina   Americas   2007    75.3  40301927    12779.
 6 Australia   Oceania    2007    81.2  20434176    34435.
 7 Austria     Europe     2007    79.8   8199783    36126.
 8 Bahrain     Asia       2007    75.6    708573    29796.
 9 Bangladesh  Asia       2007    64.1 150448339     1391.
10 Belgium     Europe     2007    79.4  10392226    33693.
# … with 1,694 more rows

gapminder %>% arrange(country, desc(year))

# A tibble: 1,704 x 6
   country     continent  year lifeExp      pop gdpPercap
   <fct>       <fct>     <int>   <dbl>    <int>     <dbl>
 1 Afghanistan Asia       2007    43.8 31889923      975.
 2 Afghanistan Asia       2002    42.1 25268405      727.
 3 Afghanistan Asia       1997    41.8 22227415      635.
 4 Afghanistan Asia       1992    41.7 16317921      649.
 5 Afghanistan Asia       1987    40.8 13867957      852.
 6 Afghanistan Asia       1982    39.9 12881816      978.
 7 Afghanistan Asia       1977    38.4 14880372      786.
 8 Afghanistan Asia       1972    36.1 13079460      740.
 9 Afghanistan Asia       1967    34.0 11537966      836.
10 Afghanistan Asia       1962    32.0 10267083      853.
# … with 1,694 more rows
…
# A tibble: 1 x 1
  `mean(GDP)`
        <dbl>
1 7131763852.

#Bonus: group_by
gapminder %>% 
  group_by(country) %>% 
  summarise(mean(gdpPercap))

# A tibble: 142 x 2
   country     `mean(gdpPercap)`
   <fct>                   <dbl>
 1 Afghanistan              803.
 2 Albania                 3255.
 3 Algeria                 4426.
 4 Angola                  3607.
 5 Argentina               8956.
 6 Australia              19981.
 7 Austria                20412.
 8 Bahrain                18078.
 9 Bangladesh               818.
10 Belgium                19901.
# … with 132 more rows
…
